{
  "type": "service_account",
  "project_id": "bripinangfcm",
  "private_key_id": "49187a88fb0728499788e3108fc5ad6cbf6b686d",
  "private_key": "-----BEGIN PRIVATE KEY-----\nMIIEvAIBADANBgkqhkiG9w0BAQEFAASCBKYwggSiAgEAAoIBAQCmaovmwjD5Ji9w\nbHxT4HnbmxOXbAj/sgwH8lu6Lbh6yPLBM8Q1DuqF6hAPP9gUAoLOUi5wTeAaHoEN\nXAn2akv6u9+UGZCzE2Dc9Qct13mXVDFVtdAQfjuDF/ivwEwE5SG1RrEBUdlv4fpX\nMuzWHUoQLmpCxBb+oeJdbpkvR2GwdorbLqELAoROw8jOVvLD31gLNBx/m0B9LStt\naWgUK49RJffQv9vrM2qdxf0VveqVOivKKo3ZYR0tLYEm+Ypcs4DBnbSLEIxhpGsr\n1i9zrm8jpIQKrTydVCINIhMK3RihCvsbKvg+ieoP7XRrGpm0hffUB0l/j8pxlNCW\nLHdJZxZxAgMBAAECggEAKC7E7ijIq3hZbxN658PlmK22ytLGz3rd5dNS678bcuZv\nm1AVGdyqq0ArtYrscVRz4j68wNhE+vmPnrqxGyNqijXwE/IiWuMcee3eWGbVkME/\nEluOzFS2qP5SSZmsoWf0PjG+DrwFPTs69/AveLnkxsh2Vv3DMaPEJVxNt7lMMM/i\nlh5wvd03NySyFoqO2N6EgnqoJFfSr208RB5AldImQ0gVW7XUk9dW9p/5+c6Ulh2G\n/7qYXDnEPjQO2TSJYuOuZihX4v4qQvOiuxqoExataFbFc984t9aw9He2Imce4mgR\nUdv+bjg+Is6Hu9ImREgauI6z1fNuWEUY6L3HM2TFewKBgQDlbbPlCd3bA2EYm1Tb\nMzMsQYUQje76zMV3pe/9M+8J/7eeMLTliu1j7ncPFDeuWKUihygCPPdrAGB3zFuK\nvyHRl+PG1I/JZxk/Wvmn0YrlulgdtPO+y2no6PGgfVV/Emga2puO81t9b/CQZluE\n7c0rdGOvduc/sCN/SXydhb4fEwKBgQC5sJlmp8mrg1hABWCYKz39CPmv+7xibq98\nj1JzaIkixCXXLG+MkqKhBKlYBTAJFqb9xYlA5fpOg6s/xUj35mo/Pe+jEJHwHrXB\nXUiTerfohK0F3c5yqib5DUVtj20pRvRqLJeXp5/jHajfWo/CvdWeUFQPFVAabJ39\nG01fEl8w6wKBgEauG0OuXHjCe8E26Vd2WIeDz9ifwUXmm9cWee7JdxTfgNPtMW2d\n9TBaILe2hMjjakxO0xaNbbO7M/z0Kid+Zo7JelSg24MyjeakwlDfDyli1Q6h1o2q\n4P/t87J7qkExjHzpaA8MDd2BBN2Xiw5SrGh8vNErkmZefzERlKB6uW2dAoGAJbEy\nQkM2zYjYxg4RYHIOoClNPaq0v6pGFtuk2eZTR+pW4AmWDwvI1TR0B3juGjot5X9O\ncAz+tSdHAKfUOvXbhUDWPtxjM0GYlUqRK9aSNDGSSYmPmXjudkl6WVXuy50qic7J\narBM5TYlDEl+uwH7taoKlhE2dFat7y22k+DPz8cCgYAekuui9P7SdJQqDqjFD5dq\nyZSgxyg5wwsS79cW6KatdDyK1P4P2ZYUksPJIVGFCtEx3MnDDvk1yXVXENkP72jq\npRBnrSEPn6aS7U/iJBRdOI+yNrKR2PEFlWevjE6/dTJIro6nGwKxNZMkaplN36c4\n2Dz2EPvmpsUPvFeaxACtvQ==\n-----END PRIVATE KEY-----\n",
  "client_email": "firebase-adminsdk-p9dua@bripinangfcm.iam.gserviceaccount.com",
  "client_id": "116846929343392784102",
  "auth_uri": "https://accounts.google.com/o/oauth2/auth",
  "token_uri": "https://oauth2.googleapis.com/token",
  "auth_provider_x509_cert_url": "https://www.googleapis.com/oauth2/v1/certs",
  "client_x509_cert_url": "https://www.googleapis.com/robot/v1/metadata/x509/firebase-adminsdk-p9dua%40bripinangfcm.iam.gserviceaccount.com"
}
